build/top_vcd.vcd
$date
     Aug 06, 2025       14:27:12
$end

$version
 SystemC 3.0.1-Accellera --- Jul 31 2025 16:24:07
$end

$timescale
     100 ps
$end

$scope module SystemC $end
$var wire    1  aaaaa  CLK       $end
$var wire    1  aaaab  reset       $end
$var wire    1  aaaac  enable       $end
$var wire    2  aaaad  status [1:0]  $end
$var wire   32  aaaae  awaddr [31:0]  $end
$var wire    1  aaaaf  awvalid       $end
$var wire    1  aaaag  awready       $end
$var wire   32  aaaah  wdata [31:0]  $end
$var wire    1  aaaai  wvalid       $end
$var wire    1  aaaaj  wready       $end
$var wire    1  aaaak  bvalid       $end
$var wire    1  aaaal  bready       $end
$var wire   32  aaaam  araddr [31:0]  $end
$var wire    1  aaaan  arvalid       $end
$var wire    1  aaaao  arready       $end
$var wire   32  aaaap  rdata [31:0]  $end
$var wire    1  aaaaq  rvalid       $end
$var wire    1  aaaar  rready       $end
$upscope $end
$enddefinitions  $end

$comment
All initial values are dumped below at time 0 sec = 0 timescale units.
$end

$dumpvars
1aaaaa
0aaaab
0aaaac
b0 aaaad
b0 aaaae
0aaaaf
0aaaag
b0 aaaah
0aaaai
0aaaaj
0aaaak
0aaaal
b0 aaaam
0aaaan
0aaaao
b0 aaaap
0aaaaq
0aaaar
$end

#50
0aaaaa

#100
1aaaaa

#150
0aaaaa

#200
1aaaaa

#250
0aaaaa

#300
1aaaaa

#350
0aaaaa

#400
1aaaaa

#450
0aaaaa

#500
1aaaaa

#550
0aaaaa

#600
1aaaaa
1aaaac

#650
0aaaaa

#700
1aaaaa
0aaaac
b1 aaaad
b100000000 aaaam
1aaaan

#750
0aaaaa

#800
1aaaaa
1aaaao
b1000000000000 aaaap
1aaaaq

#850
0aaaaa

#900
1aaaaa
0aaaan
1aaaar

#950
0aaaaa

#1000
1aaaaa
b100000100 aaaam
1aaaan
0aaaao
0aaaaq
0aaaar

#1050
0aaaaa

#1100
1aaaaa
1aaaao
b10000000000000 aaaap
1aaaaq

#1150
0aaaaa

#1200
1aaaaa
0aaaan
1aaaar

#1250
0aaaaa

#1300
1aaaaa
b100001000 aaaam
1aaaan
0aaaao
0aaaaq
0aaaar

#1350
0aaaaa

#1400
1aaaaa
1aaaao
b10 aaaap
1aaaaq

#1450
0aaaaa

#1500
1aaaaa
0aaaan
1aaaar

#1550
0aaaaa

#1600
1aaaaa
b100001100 aaaam
1aaaan
0aaaao
0aaaaq
0aaaar

#1650
0aaaaa

#1700
1aaaaa
1aaaao
b11 aaaap
1aaaaq

#1750
0aaaaa

#1800
1aaaaa
0aaaan
1aaaar

#1850
0aaaaa

#1900
1aaaaa
b100010000 aaaam
1aaaan
0aaaao
0aaaaq
0aaaar

#1950
0aaaaa

#2000
1aaaaa
1aaaao
b10 aaaap
1aaaaq

#2050
0aaaaa

#2100
1aaaaa
0aaaan
1aaaar

#2150
0aaaaa

#2200
1aaaaa
b100010100 aaaam
1aaaan
0aaaao
0aaaaq
0aaaar

#2250
0aaaaa

#2300
1aaaaa
1aaaao
b11000000000000 aaaap
1aaaaq

#2350
0aaaaa

#2400
1aaaaa
0aaaan
1aaaar

#2450
0aaaaa

#2500
1aaaaa
b1000000000000 aaaam
1aaaan
0aaaao
0aaaaq
0aaaar

#2550
0aaaaa

#2600
1aaaaa
1aaaao
b111111100000000000000000000000 aaaap
1aaaaq

#2650
0aaaaa

#2700
1aaaaa
0aaaan
1aaaar

#2750
0aaaaa

#2800
1aaaaa
b1000000000100 aaaam
1aaaan
0aaaao
0aaaaq
0aaaar

#2850
0aaaaa

#2900
1aaaaa
1aaaao
b1000000000000000000000000000000 aaaap
1aaaaq

#2950
0aaaaa

#3000
1aaaaa
0aaaan
1aaaar

#3050
0aaaaa

#3100
1aaaaa
b1000000001000 aaaam
1aaaan
0aaaao
0aaaaq
0aaaar

#3150
0aaaaa

#3200
1aaaaa
1aaaao
b1000000010000000000000000000000 aaaap
1aaaaq

#3250
0aaaaa

#3300
1aaaaa
0aaaan
1aaaar

#3350
0aaaaa

#3400
1aaaaa
b10000000000000 aaaam
1aaaan
0aaaao
0aaaaq
0aaaar

#3450
0aaaaa

#3500
1aaaaa
1aaaao
b1000000111000000000000000000000 aaaap
1aaaaq

#3550
0aaaaa

#3600
1aaaaa
1aaaar

#3650
0aaaaa

#3700
1aaaaa
b10000000001000 aaaam
0aaaaq
0aaaar

#3750
0aaaaa

#3800
1aaaaa
b1000001000000000000000000000000 aaaap
1aaaaq
1aaaar

#3850
0aaaaa

#3900
1aaaaa
b10000000010000 aaaam
0aaaaq
0aaaar

#3950
0aaaaa

#4000
1aaaaa
b1000001000100000000000000000000 aaaap
1aaaaq
1aaaar

#4050
0aaaaa

#4100
1aaaaa
0aaaaq
0aaaar

#4150
0aaaaa

#4200
1aaaaa
1aaaaq

#4250
0aaaaa

#4300
1aaaaa

#4350
0aaaaa

#4400
1aaaaa

#4450
0aaaaa

#4500
1aaaaa

#4550
0aaaaa

#4600
1aaaaa

#4650
0aaaaa

#4700
1aaaaa
b11000000000000 aaaae
1aaaaf

#4750
0aaaaa

#4800
1aaaaa
1aaaag

#4850
0aaaaa

#4900
1aaaaa
0aaaaf
b1000010010010000000000000000000 aaaah
1aaaai

#4950
0aaaaa

#5000
1aaaaa
0aaaag
1aaaaj
1aaaak

#5050
0aaaaa

#5100
1aaaaa
0aaaai
1aaaal

#5150
0aaaaa

#5200
1aaaaa
0aaaaj
0aaaak
0aaaal
b10000000000100 aaaam

#5250
0aaaaa

#5300
1aaaaa
b1000001001000000000000000000000 aaaap
1aaaar

#5350
0aaaaa

#5400
1aaaaa
b10000000001100 aaaam
0aaaaq
0aaaar

#5450
0aaaaa

#5500
1aaaaa
b1000001001100000000000000000000 aaaap
1aaaaq
1aaaar

#5550
0aaaaa

#5600
1aaaaa
b10000000010100 aaaam
0aaaaq
0aaaar

#5650
0aaaaa

#5700
1aaaaa
b1000001010000000000000000000000 aaaap
1aaaaq
1aaaar

#5750
0aaaaa

#5800
1aaaaa
0aaaaq
0aaaar

#5850
0aaaaa

#5900
1aaaaa
1aaaaq

#5950
0aaaaa

#6000
1aaaaa

#6050
0aaaaa

#6100
1aaaaa

#6150
0aaaaa

#6200
1aaaaa

#6250
0aaaaa

#6300
1aaaaa

#6350
0aaaaa

#6400
1aaaaa
b11000000000100 aaaae
1aaaaf

#6450
0aaaaa

#6500
1aaaaa
1aaaag

#6550
0aaaaa

#6600
1aaaaa
0aaaaf
b1000010100010000000000000000000 aaaah
1aaaai

#6650
0aaaaa

#6700
1aaaaa
0aaaag
1aaaaj
1aaaak

#6750
0aaaaa

#6800
1aaaaa
0aaaai
1aaaal

#6850
0aaaaa

#6900
1aaaaa
0aaaaj
0aaaak
0aaaal
b1000000001100 aaaam

#6950
0aaaaa

#7000
1aaaaa
0aaaan
b1000000100000000000000000000000 aaaap
1aaaar

#7050
0aaaaa

#7100
1aaaaa
b1000000010000 aaaam
1aaaan
0aaaao
0aaaaq
0aaaar

#7150
0aaaaa

#7200
1aaaaa
1aaaao
b1000000101000000000000000000000 aaaap
1aaaaq

#7250
0aaaaa

#7300
1aaaaa
0aaaan
1aaaar

#7350
0aaaaa

#7400
1aaaaa
b1000000010100 aaaam
1aaaan
0aaaao
0aaaaq
0aaaar

#7450
0aaaaa

#7500
1aaaaa
1aaaao
b1000000110000000000000000000000 aaaap
1aaaaq

#7550
0aaaaa

#7600
1aaaaa
0aaaan
1aaaar

#7650
0aaaaa

#7700
1aaaaa
b10000000000000 aaaam
1aaaan
0aaaao
0aaaaq
0aaaar

#7750
0aaaaa

#7800
1aaaaa
1aaaao
b1000000111000000000000000000000 aaaap
1aaaaq

#7850
0aaaaa

#7900
1aaaaa
1aaaar

#7950
0aaaaa

#8000
1aaaaa
b10000000001000 aaaam
0aaaaq
0aaaar

#8050
0aaaaa

#8100
1aaaaa
b1000001000000000000000000000000 aaaap
1aaaaq
1aaaar

#8150
0aaaaa

#8200
1aaaaa
b10000000010000 aaaam
0aaaaq
0aaaar

#8250
0aaaaa

#8300
1aaaaa
b1000001000100000000000000000000 aaaap
1aaaaq
1aaaar

#8350
0aaaaa

#8400
1aaaaa
0aaaaq
0aaaar

#8450
0aaaaa

#8500
1aaaaa
1aaaaq

#8550
0aaaaa

#8600
1aaaaa

#8650
0aaaaa

#8700
1aaaaa

#8750
0aaaaa

#8800
1aaaaa

#8850
0aaaaa

#8900
1aaaaa

#8950
0aaaaa

#9000
1aaaaa
b11000000001000 aaaae
1aaaaf

#9050
0aaaaa

#9100
1aaaaa
1aaaag

#9150
0aaaaa

#9200
1aaaaa
0aaaaf
b1000010111101000000000000000000 aaaah
1aaaai

#9250
0aaaaa

#9300
1aaaaa
0aaaag
1aaaaj
1aaaak

#9350
0aaaaa

#9400
1aaaaa
0aaaai
1aaaal

#9450
0aaaaa

#9500
1aaaaa
0aaaaj
0aaaak
0aaaal
b10000000000100 aaaam

#9550
0aaaaa

#9600
1aaaaa
b1000001001000000000000000000000 aaaap
1aaaar

#9650
0aaaaa

#9700
1aaaaa
b10000000001100 aaaam
0aaaaq
0aaaar

#9750
0aaaaa

#9800
1aaaaa
b1000001001100000000000000000000 aaaap
1aaaaq
1aaaar

#9850
0aaaaa

#9900
1aaaaa
b10000000010100 aaaam
0aaaaq
0aaaar

#9950
0aaaaa

#10000
1aaaaa
b1000001010000000000000000000000 aaaap
1aaaaq
1aaaar

#10050
0aaaaa

#10100
1aaaaa
0aaaaq
0aaaar

#10150
0aaaaa

#10200
1aaaaa
1aaaaq

#10250
0aaaaa

#10300
1aaaaa

#10350
0aaaaa

#10400
1aaaaa

#10450
0aaaaa

#10500
1aaaaa

#10550
0aaaaa

#10600
1aaaaa

#10650
0aaaaa

#10700
1aaaaa
b11000000001100 aaaae
1aaaaf

#10750
0aaaaa

#10800
1aaaaa
1aaaag

#10850
0aaaaa

#10900
1aaaaa
0aaaaf
b1000011001001110000000000000000 aaaah
1aaaai

#10950
0aaaaa

#11000
1aaaaa
0aaaag
1aaaaj
1aaaak

#11050
0aaaaa

#11100
1aaaaa
0aaaai
1aaaal

#11150
0aaaaa

#11200
1aaaaa
b0 aaaad
0aaaaj
0aaaak
0aaaal

